ISO-10303-21;
HEADER;
/* Generated by software containing ST-Developer
 * from STEP Tools, Inc. (www.steptools.com) 
 */

FILE_DESCRIPTION(
/* description */ (''),
/* implementation_level */ '2;1');

FILE_NAME(
/* name */ '/Users/guillaume/Downloads/cache_rotary.step',
/* time_stamp */ '2021-03-14T20:27:28+01:00',
/* author */ (''),
/* organization */ (''),
/* preprocessor_version */ 'ST-DEVELOPER v18.1',
/* originating_system */ 'Autodesk Translation Framework v9.10.0.1330',

/* authorisation */ '');

FILE_SCHEMA (('AUTOMOTIVE_DESIGN { 1 0 10303 214 3 1 1 }'));
ENDSEC;

DATA;
#10=MECHANICAL_DESIGN_GEOMETRIC_PRESENTATION_REPRESENTATION('',(#13),#364);
#11=SHAPE_REPRESENTATION_RELATIONSHIP('SRR','None',#371,#12);
#12=ADVANCED_BREP_SHAPE_REPRESENTATION('',(#14),#363);
#13=STYLED_ITEM('',(#380),#14);
#14=MANIFOLD_SOLID_BREP('Body1',#220);
#15=CIRCLE('',#244,4.);
#16=CIRCLE('',#245,4.);
#17=CYLINDRICAL_SURFACE('',#243,4.);
#18=FACE_BOUND('',#42,.T.);
#19=FACE_BOUND('',#45,.T.);
#20=FACE_BOUND('',#47,.T.);
#21=FACE_OUTER_BOUND('',#33,.T.);
#22=FACE_OUTER_BOUND('',#34,.T.);
#23=FACE_OUTER_BOUND('',#35,.T.);
#24=FACE_OUTER_BOUND('',#36,.T.);
#25=FACE_OUTER_BOUND('',#37,.T.);
#26=FACE_OUTER_BOUND('',#38,.T.);
#27=FACE_OUTER_BOUND('',#39,.T.);
#28=FACE_OUTER_BOUND('',#40,.T.);
#29=FACE_OUTER_BOUND('',#41,.T.);
#30=FACE_OUTER_BOUND('',#43,.T.);
#31=FACE_OUTER_BOUND('',#44,.T.);
#32=FACE_OUTER_BOUND('',#46,.T.);
#33=EDGE_LOOP('',(#143,#144,#145,#146));
#34=EDGE_LOOP('',(#147,#148,#149,#150));
#35=EDGE_LOOP('',(#151,#152,#153,#154));
#36=EDGE_LOOP('',(#155,#156,#157,#158));
#37=EDGE_LOOP('',(#159,#160,#161,#162));
#38=EDGE_LOOP('',(#163,#164,#165,#166));
#39=EDGE_LOOP('',(#167,#168,#169,#170));
#40=EDGE_LOOP('',(#171,#172,#173,#174));
#41=EDGE_LOOP('',(#175,#176,#177,#178));
#42=EDGE_LOOP('',(#179,#180,#181,#182));
#43=EDGE_LOOP('',(#183,#184,#185,#186));
#44=EDGE_LOOP('',(#187,#188,#189,#190));
#45=EDGE_LOOP('',(#191));
#46=EDGE_LOOP('',(#192,#193,#194,#195));
#47=EDGE_LOOP('',(#196));
#48=LINE('',#307,#73);
#49=LINE('',#309,#74);
#50=LINE('',#311,#75);
#51=LINE('',#312,#76);
#52=LINE('',#315,#77);
#53=LINE('',#317,#78);
#54=LINE('',#318,#79);
#55=LINE('',#321,#80);
#56=LINE('',#323,#81);
#57=LINE('',#324,#82);
#58=LINE('',#326,#83);
#59=LINE('',#327,#84);
#60=LINE('',#331,#85);
#61=LINE('',#333,#86);
#62=LINE('',#335,#87);
#63=LINE('',#336,#88);
#64=LINE('',#339,#89);
#65=LINE('',#341,#90);
#66=LINE('',#342,#91);
#67=LINE('',#345,#92);
#68=LINE('',#347,#93);
#69=LINE('',#348,#94);
#70=LINE('',#350,#95);
#71=LINE('',#351,#96);
#72=LINE('',#357,#97);
#73=VECTOR('',#252,10.);
#74=VECTOR('',#253,10.);
#75=VECTOR('',#254,10.);
#76=VECTOR('',#255,10.);
#77=VECTOR('',#258,10.);
#78=VECTOR('',#259,10.);
#79=VECTOR('',#260,10.);
#80=VECTOR('',#263,10.);
#81=VECTOR('',#264,10.);
#82=VECTOR('',#265,10.);
#83=VECTOR('',#268,10.);
#84=VECTOR('',#269,10.);
#85=VECTOR('',#272,10.);
#86=VECTOR('',#273,10.);
#87=VECTOR('',#274,10.);
#88=VECTOR('',#275,10.);
#89=VECTOR('',#278,10.);
#90=VECTOR('',#279,10.);
#91=VECTOR('',#280,10.);
#92=VECTOR('',#283,10.);
#93=VECTOR('',#284,10.);
#94=VECTOR('',#285,10.);
#95=VECTOR('',#288,10.);
#96=VECTOR('',#289,10.);
#97=VECTOR('',#296,4.);
#98=VERTEX_POINT('',#305);
#99=VERTEX_POINT('',#306);
#100=VERTEX_POINT('',#308);
#101=VERTEX_POINT('',#310);
#102=VERTEX_POINT('',#314);
#103=VERTEX_POINT('',#316);
#104=VERTEX_POINT('',#320);
#105=VERTEX_POINT('',#322);
#106=VERTEX_POINT('',#329);
#107=VERTEX_POINT('',#330);
#108=VERTEX_POINT('',#332);
#109=VERTEX_POINT('',#334);
#110=VERTEX_POINT('',#338);
#111=VERTEX_POINT('',#340);
#112=VERTEX_POINT('',#344);
#113=VERTEX_POINT('',#346);
#114=VERTEX_POINT('',#354);
#115=VERTEX_POINT('',#356);
#116=EDGE_CURVE('',#98,#99,#48,.T.);
#117=EDGE_CURVE('',#98,#100,#49,.T.);
#118=EDGE_CURVE('',#101,#100,#50,.T.);
#119=EDGE_CURVE('',#99,#101,#51,.T.);
#120=EDGE_CURVE('',#102,#98,#52,.T.);
#121=EDGE_CURVE('',#102,#103,#53,.T.);
#122=EDGE_CURVE('',#100,#103,#54,.T.);
#123=EDGE_CURVE('',#99,#104,#55,.T.);
#124=EDGE_CURVE('',#105,#101,#56,.T.);
#125=EDGE_CURVE('',#104,#105,#57,.T.);
#126=EDGE_CURVE('',#104,#102,#58,.T.);
#127=EDGE_CURVE('',#103,#105,#59,.T.);
#128=EDGE_CURVE('',#106,#107,#60,.T.);
#129=EDGE_CURVE('',#107,#108,#61,.T.);
#130=EDGE_CURVE('',#109,#108,#62,.T.);
#131=EDGE_CURVE('',#106,#109,#63,.T.);
#132=EDGE_CURVE('',#110,#106,#64,.T.);
#133=EDGE_CURVE('',#111,#109,#65,.T.);
#134=EDGE_CURVE('',#110,#111,#66,.T.);
#135=EDGE_CURVE('',#112,#110,#67,.T.);
#136=EDGE_CURVE('',#113,#111,#68,.T.);
#137=EDGE_CURVE('',#112,#113,#69,.T.);
#138=EDGE_CURVE('',#107,#112,#70,.T.);
#139=EDGE_CURVE('',#108,#113,#71,.T.);
#140=EDGE_CURVE('',#114,#114,#15,.T.);
#141=EDGE_CURVE('',#114,#115,#72,.T.);
#142=EDGE_CURVE('',#115,#115,#16,.T.);
#143=ORIENTED_EDGE('',*,*,#116,.F.);
#144=ORIENTED_EDGE('',*,*,#117,.T.);
#145=ORIENTED_EDGE('',*,*,#118,.F.);
#146=ORIENTED_EDGE('',*,*,#119,.F.);
#147=ORIENTED_EDGE('',*,*,#120,.F.);
#148=ORIENTED_EDGE('',*,*,#121,.T.);
#149=ORIENTED_EDGE('',*,*,#122,.F.);
#150=ORIENTED_EDGE('',*,*,#117,.F.);
#151=ORIENTED_EDGE('',*,*,#123,.F.);
#152=ORIENTED_EDGE('',*,*,#119,.T.);
#153=ORIENTED_EDGE('',*,*,#124,.F.);
#154=ORIENTED_EDGE('',*,*,#125,.F.);
#155=ORIENTED_EDGE('',*,*,#126,.F.);
#156=ORIENTED_EDGE('',*,*,#125,.T.);
#157=ORIENTED_EDGE('',*,*,#127,.F.);
#158=ORIENTED_EDGE('',*,*,#121,.F.);
#159=ORIENTED_EDGE('',*,*,#128,.T.);
#160=ORIENTED_EDGE('',*,*,#129,.T.);
#161=ORIENTED_EDGE('',*,*,#130,.F.);
#162=ORIENTED_EDGE('',*,*,#131,.F.);
#163=ORIENTED_EDGE('',*,*,#132,.T.);
#164=ORIENTED_EDGE('',*,*,#131,.T.);
#165=ORIENTED_EDGE('',*,*,#133,.F.);
#166=ORIENTED_EDGE('',*,*,#134,.F.);
#167=ORIENTED_EDGE('',*,*,#135,.T.);
#168=ORIENTED_EDGE('',*,*,#134,.T.);
#169=ORIENTED_EDGE('',*,*,#136,.F.);
#170=ORIENTED_EDGE('',*,*,#137,.F.);
#171=ORIENTED_EDGE('',*,*,#138,.T.);
#172=ORIENTED_EDGE('',*,*,#137,.T.);
#173=ORIENTED_EDGE('',*,*,#139,.F.);
#174=ORIENTED_EDGE('',*,*,#129,.F.);
#175=ORIENTED_EDGE('',*,*,#139,.T.);
#176=ORIENTED_EDGE('',*,*,#136,.T.);
#177=ORIENTED_EDGE('',*,*,#133,.T.);
#178=ORIENTED_EDGE('',*,*,#130,.T.);
#179=ORIENTED_EDGE('',*,*,#122,.T.);
#180=ORIENTED_EDGE('',*,*,#127,.T.);
#181=ORIENTED_EDGE('',*,*,#124,.T.);
#182=ORIENTED_EDGE('',*,*,#118,.T.);
#183=ORIENTED_EDGE('',*,*,#140,.F.);
#184=ORIENTED_EDGE('',*,*,#141,.T.);
#185=ORIENTED_EDGE('',*,*,#142,.T.);
#186=ORIENTED_EDGE('',*,*,#141,.F.);
#187=ORIENTED_EDGE('',*,*,#120,.T.);
#188=ORIENTED_EDGE('',*,*,#116,.T.);
#189=ORIENTED_EDGE('',*,*,#123,.T.);
#190=ORIENTED_EDGE('',*,*,#126,.T.);
#191=ORIENTED_EDGE('',*,*,#140,.T.);
#192=ORIENTED_EDGE('',*,*,#138,.F.);
#193=ORIENTED_EDGE('',*,*,#128,.F.);
#194=ORIENTED_EDGE('',*,*,#132,.F.);
#195=ORIENTED_EDGE('',*,*,#135,.F.);
#196=ORIENTED_EDGE('',*,*,#142,.F.);
#197=PLANE('',#234);
#198=PLANE('',#235);
#199=PLANE('',#236);
#200=PLANE('',#237);
#201=PLANE('',#238);
#202=PLANE('',#239);
#203=PLANE('',#240);
#204=PLANE('',#241);
#205=PLANE('',#242);
#206=PLANE('',#246);
#207=PLANE('',#247);
#208=ADVANCED_FACE('',(#21),#197,.T.);
#209=ADVANCED_FACE('',(#22),#198,.T.);
#210=ADVANCED_FACE('',(#23),#199,.T.);
#211=ADVANCED_FACE('',(#24),#200,.T.);
#212=ADVANCED_FACE('',(#25),#201,.T.);
#213=ADVANCED_FACE('',(#26),#202,.T.);
#214=ADVANCED_FACE('',(#27),#203,.T.);
#215=ADVANCED_FACE('',(#28),#204,.T.);
#216=ADVANCED_FACE('',(#29,#18),#205,.T.);
#217=ADVANCED_FACE('',(#30),#17,.F.);
#218=ADVANCED_FACE('',(#31,#19),#206,.T.);
#219=ADVANCED_FACE('',(#32,#20),#207,.F.);
#220=CLOSED_SHELL('',(#208,#209,#210,#211,#212,#213,#214,#215,#216,#217,
#218,#219));
#221=DERIVED_UNIT_ELEMENT(#223,1.);
#222=DERIVED_UNIT_ELEMENT(#366,-3.);
#223=(
MASS_UNIT()
NAMED_UNIT(*)
SI_UNIT(.KILO.,.GRAM.)
);
#224=DERIVED_UNIT((#221,#222));
#225=MEASURE_REPRESENTATION_ITEM('density measure',
POSITIVE_RATIO_MEASURE(7850.),#224);
#226=PROPERTY_DEFINITION_REPRESENTATION(#231,#228);
#227=PROPERTY_DEFINITION_REPRESENTATION(#232,#229);
#228=REPRESENTATION('material name',(#230),#363);
#229=REPRESENTATION('density',(#225),#363);
#230=DESCRIPTIVE_REPRESENTATION_ITEM('Steel','Steel');
#231=PROPERTY_DEFINITION('material property','material name',#373);
#232=PROPERTY_DEFINITION('material property','density of part',#373);
#233=AXIS2_PLACEMENT_3D('placement',#303,#248,#249);
#234=AXIS2_PLACEMENT_3D('',#304,#250,#251);
#235=AXIS2_PLACEMENT_3D('',#313,#256,#257);
#236=AXIS2_PLACEMENT_3D('',#319,#261,#262);
#237=AXIS2_PLACEMENT_3D('',#325,#266,#267);
#238=AXIS2_PLACEMENT_3D('',#328,#270,#271);
#239=AXIS2_PLACEMENT_3D('',#337,#276,#277);
#240=AXIS2_PLACEMENT_3D('',#343,#281,#282);
#241=AXIS2_PLACEMENT_3D('',#349,#286,#287);
#242=AXIS2_PLACEMENT_3D('',#352,#290,#291);
#243=AXIS2_PLACEMENT_3D('',#353,#292,#293);
#244=AXIS2_PLACEMENT_3D('',#355,#294,#295);
#245=AXIS2_PLACEMENT_3D('',#358,#297,#298);
#246=AXIS2_PLACEMENT_3D('',#359,#299,#300);
#247=AXIS2_PLACEMENT_3D('',#360,#301,#302);
#248=DIRECTION('axis',(0.,0.,1.));
#249=DIRECTION('refdir',(1.,0.,0.));
#250=DIRECTION('center_axis',(0.,1.,0.));
#251=DIRECTION('ref_axis',(-1.,0.,0.));
#252=DIRECTION('',(1.,0.,0.));
#253=DIRECTION('',(0.,0.,1.));
#254=DIRECTION('',(-1.,0.,0.));
#255=DIRECTION('',(0.,0.,1.));
#256=DIRECTION('center_axis',(1.,0.,0.));
#257=DIRECTION('ref_axis',(0.,1.,0.));
#258=DIRECTION('',(0.,-1.,0.));
#259=DIRECTION('',(0.,0.,1.));
#260=DIRECTION('',(0.,1.,0.));
#261=DIRECTION('center_axis',(-1.,0.,0.));
#262=DIRECTION('ref_axis',(0.,-1.,0.));
#263=DIRECTION('',(0.,1.,0.));
#264=DIRECTION('',(0.,-1.,0.));
#265=DIRECTION('',(0.,0.,1.));
#266=DIRECTION('center_axis',(0.,-1.,0.));
#267=DIRECTION('ref_axis',(1.,0.,0.));
#268=DIRECTION('',(-1.,0.,0.));
#269=DIRECTION('',(1.,0.,0.));
#270=DIRECTION('center_axis',(0.,1.,0.));
#271=DIRECTION('ref_axis',(-1.,0.,0.));
#272=DIRECTION('',(-1.,0.,0.));
#273=DIRECTION('',(0.,0.,1.));
#274=DIRECTION('',(-1.,0.,0.));
#275=DIRECTION('',(0.,0.,1.));
#276=DIRECTION('center_axis',(1.,0.,0.));
#277=DIRECTION('ref_axis',(0.,1.,0.));
#278=DIRECTION('',(0.,1.,0.));
#279=DIRECTION('',(0.,1.,0.));
#280=DIRECTION('',(0.,0.,1.));
#281=DIRECTION('center_axis',(0.,-1.,0.));
#282=DIRECTION('ref_axis',(1.,0.,0.));
#283=DIRECTION('',(1.,0.,0.));
#284=DIRECTION('',(1.,0.,0.));
#285=DIRECTION('',(0.,0.,1.));
#286=DIRECTION('center_axis',(-1.,0.,0.));
#287=DIRECTION('ref_axis',(0.,-1.,0.));
#288=DIRECTION('',(0.,-1.,0.));
#289=DIRECTION('',(0.,-1.,0.));
#290=DIRECTION('center_axis',(0.,0.,1.));
#291=DIRECTION('ref_axis',(1.,0.,0.));
#292=DIRECTION('center_axis',(0.,0.,1.));
#293=DIRECTION('ref_axis',(1.,0.,0.));
#294=DIRECTION('center_axis',(0.,0.,-1.));
#295=DIRECTION('ref_axis',(1.,0.,0.));
#296=DIRECTION('',(0.,0.,-1.));
#297=DIRECTION('center_axis',(0.,0.,-1.));
#298=DIRECTION('ref_axis',(1.,0.,0.));
#299=DIRECTION('center_axis',(0.,0.,1.));
#300=DIRECTION('ref_axis',(1.,0.,0.));
#301=DIRECTION('center_axis',(0.,0.,1.));
#302=DIRECTION('ref_axis',(1.,0.,0.));
#303=CARTESIAN_POINT('',(0.,0.,0.));
#304=CARTESIAN_POINT('Origin',(43.7794911833728,105.904984476817,0.));
#305=CARTESIAN_POINT('',(29.4794911833728,105.904984476817,1.5));
#306=CARTESIAN_POINT('',(43.7794911833728,105.904984476817,1.5));
#307=CARTESIAN_POINT('',(29.4794911833728,105.904984476817,1.5));
#308=CARTESIAN_POINT('',(29.4794911833728,105.904984476817,3.));
#309=CARTESIAN_POINT('',(29.4794911833728,105.904984476817,0.));
#310=CARTESIAN_POINT('',(43.7794911833728,105.904984476817,3.));
#311=CARTESIAN_POINT('',(29.4794911833728,105.904984476817,3.));
#312=CARTESIAN_POINT('',(43.7794911833728,105.904984476817,0.));
#313=CARTESIAN_POINT('Origin',(29.4794911833728,105.904984476817,0.));
#314=CARTESIAN_POINT('',(29.4794911833728,121.504984476817,1.5));
#315=CARTESIAN_POINT('',(29.4794911833728,121.504984476817,1.5));
#316=CARTESIAN_POINT('',(29.4794911833728,121.504984476817,3.));
#317=CARTESIAN_POINT('',(29.4794911833728,121.504984476817,0.));
#318=CARTESIAN_POINT('',(29.4794911833728,121.504984476817,3.));
#319=CARTESIAN_POINT('Origin',(43.7794911833728,121.504984476817,0.));
#320=CARTESIAN_POINT('',(43.7794911833728,121.504984476817,1.5));
#321=CARTESIAN_POINT('',(43.7794911833728,105.904984476817,1.5));
#322=CARTESIAN_POINT('',(43.7794911833728,121.504984476817,3.));
#323=CARTESIAN_POINT('',(43.7794911833728,105.904984476817,3.));
#324=CARTESIAN_POINT('',(43.7794911833728,121.504984476817,0.));
#325=CARTESIAN_POINT('Origin',(29.4794911833728,121.504984476817,0.));
#326=CARTESIAN_POINT('',(43.7794911833728,121.504984476817,1.5));
#327=CARTESIAN_POINT('',(43.7794911833728,121.504984476817,3.));
#328=CARTESIAN_POINT('Origin',(44.779491198274,122.504984491718,0.));
#329=CARTESIAN_POINT('',(44.779491198274,122.504984491718,0.));
#330=CARTESIAN_POINT('',(28.4794911684717,122.504984491718,0.));
#331=CARTESIAN_POINT('',(44.779491198274,122.504984491718,0.));
#332=CARTESIAN_POINT('',(28.4794911684717,122.504984491718,3.));
#333=CARTESIAN_POINT('',(28.4794911684717,122.504984491718,0.));
#334=CARTESIAN_POINT('',(44.779491198274,122.504984491718,3.));
#335=CARTESIAN_POINT('',(44.779491198274,122.504984491718,3.));
#336=CARTESIAN_POINT('',(44.779491198274,122.504984491718,0.));
#337=CARTESIAN_POINT('Origin',(44.779491198274,104.904984461916,0.));
#338=CARTESIAN_POINT('',(44.779491198274,104.904984461916,0.));
#339=CARTESIAN_POINT('',(44.779491198274,104.904984461916,0.));
#340=CARTESIAN_POINT('',(44.779491198274,104.904984461916,3.));
#341=CARTESIAN_POINT('',(44.779491198274,104.904984461916,3.));
#342=CARTESIAN_POINT('',(44.779491198274,104.904984461916,0.));
#343=CARTESIAN_POINT('Origin',(28.4794911684717,104.904984461916,0.));
#344=CARTESIAN_POINT('',(28.4794911684717,104.904984461916,0.));
#345=CARTESIAN_POINT('',(28.4794911684717,104.904984461916,0.));
#346=CARTESIAN_POINT('',(28.4794911684717,104.904984461916,3.));
#347=CARTESIAN_POINT('',(28.4794911684717,104.904984461916,3.));
#348=CARTESIAN_POINT('',(28.4794911684717,104.904984461916,0.));
#349=CARTESIAN_POINT('Origin',(28.4794911684717,122.504984491718,0.));
#350=CARTESIAN_POINT('',(28.4794911684717,122.504984491718,0.));
#351=CARTESIAN_POINT('',(28.4794911684717,122.504984491718,3.));
#352=CARTESIAN_POINT('Origin',(36.6294911833728,113.704984476817,3.));
#353=CARTESIAN_POINT('Origin',(36.6294911833728,113.704984476817,0.));
#354=CARTESIAN_POINT('',(32.6294911833728,113.704984476817,1.5));
#355=CARTESIAN_POINT('Origin',(36.6294911833728,113.704984476817,1.5));
#356=CARTESIAN_POINT('',(32.6294911833728,113.704984476817,0.));
#357=CARTESIAN_POINT('',(32.6294911833728,113.704984476817,0.));
#358=CARTESIAN_POINT('Origin',(36.6294911833728,113.704984476817,0.));
#359=CARTESIAN_POINT('Origin',(36.6294911833728,113.704984476817,1.5));
#360=CARTESIAN_POINT('Origin',(36.6294911833728,113.704984476817,0.));
#361=UNCERTAINTY_MEASURE_WITH_UNIT(LENGTH_MEASURE(0.01),#365,
'DISTANCE_ACCURACY_VALUE',
'Maximum model space distance between geometric entities at asserted c
onnectivities');
#362=UNCERTAINTY_MEASURE_WITH_UNIT(LENGTH_MEASURE(0.01),#365,
'DISTANCE_ACCURACY_VALUE',
'Maximum model space distance between geometric entities at asserted c
onnectivities');
#363=(
GEOMETRIC_REPRESENTATION_CONTEXT(3)
GLOBAL_UNCERTAINTY_ASSIGNED_CONTEXT((#361))
GLOBAL_UNIT_ASSIGNED_CONTEXT((#365,#367,#368))
REPRESENTATION_CONTEXT('','3D')
);
#364=(
GEOMETRIC_REPRESENTATION_CONTEXT(3)
GLOBAL_UNCERTAINTY_ASSIGNED_CONTEXT((#362))
GLOBAL_UNIT_ASSIGNED_CONTEXT((#365,#367,#368))
REPRESENTATION_CONTEXT('','3D')
);
#365=(
LENGTH_UNIT()
NAMED_UNIT(*)
SI_UNIT(.MILLI.,.METRE.)
);
#366=(
LENGTH_UNIT()
NAMED_UNIT(*)
SI_UNIT($,.METRE.)
);
#367=(
NAMED_UNIT(*)
PLANE_ANGLE_UNIT()
SI_UNIT($,.RADIAN.)
);
#368=(
NAMED_UNIT(*)
SI_UNIT($,.STERADIAN.)
SOLID_ANGLE_UNIT()
);
#369=SHAPE_DEFINITION_REPRESENTATION(#370,#371);
#370=PRODUCT_DEFINITION_SHAPE('',$,#373);
#371=SHAPE_REPRESENTATION('',(#233),#363);
#372=PRODUCT_DEFINITION_CONTEXT('part definition',#377,'design');
#373=PRODUCT_DEFINITION('cache_rotary','cache_rotary',#374,#372);
#374=PRODUCT_DEFINITION_FORMATION('',$,#379);
#375=PRODUCT_RELATED_PRODUCT_CATEGORY('cache_rotary','cache_rotary',(#379));
#376=APPLICATION_PROTOCOL_DEFINITION('international standard',
'automotive_design',2009,#377);
#377=APPLICATION_CONTEXT(
'Core Data for Automotive Mechanical Design Process');
#378=PRODUCT_CONTEXT('part definition',#377,'mechanical');
#379=PRODUCT('cache_rotary','cache_rotary',$,(#378));
#380=PRESENTATION_STYLE_ASSIGNMENT((#381));
#381=SURFACE_STYLE_USAGE(.BOTH.,#382);
#382=SURFACE_SIDE_STYLE('',(#383));
#383=SURFACE_STYLE_FILL_AREA(#384);
#384=FILL_AREA_STYLE('Steel - Satin',(#385));
#385=FILL_AREA_STYLE_COLOUR('Steel - Satin',#386);
#386=COLOUR_RGB('Steel - Satin',0.627450980392157,0.627450980392157,0.627450980392157);
ENDSEC;
END-ISO-10303-21;
