[{y:0.4,x:2.5,c:"#cfcfcf",p:"OEM R1",fa:[4,4]},"@\n2"],
[{y:-0.9,x:0.5,f:2,fa:[4,4]},"Esc\n~",{f:3,fa:[4,4]},"!\n1",{x:9.9},")\n0","+\n=",{w:2},"Backspace",{x:0.43,c:"#cfba00",a:7,fa:[9]},":-("],
[{x:0.3,c:"#ac97d8",p:"OEM R2",a:4,fa:[4],w:1.5},"Tab\n\n\nRGB",{x:0.03,c:"#cfcfcf"},"Q",{x:9.17},"O","P",{fa:[4,4]},"\"\n'",{w:1.5},"\\\n|",{x:0.43,c:"#cfba00",a:7,fa:[9]},":-)"],
[{x:0.15,c:"#cfcfcf",p:"OEM R3",a:4,fa:[4],w:1.75},"Caps\n\n\nBackspace","A",{x:9.5},"L",{fa:[4,4]},":\n;",{w:2.25},"Enter",{x:0.43,c:"#cfba00",f:3},"End\n\n\nHome"],
[{c:"#eb9346",p:"OEM R4",fa:[4],w:2.25},"Shift\n{",{c:"#cfcfcf"},"Z",{x:8.75,fa:[4,4]},"<\n,",">\n.",{c:"#eb9346",fa:[4],w:1.75},"Shift\n}",{c:"#cfcfcf",fa:[4,4]},"↑\n⇑"],
[{x:0.25,w:1.25},"Ctrl",{x:13.25},"←",{fa:[4]},"↓\n⇓","→"],
[{r:8,y:-5.52,x:3.65,p:"OEM R1",fa:[4,4]},"#\n3","$\n4","%\n5","^\n6"],
[{x:3.1,p:"OEM R2"},"W","E","R","T"],
[{x:3.35,p:"OEM R3"},"S","D",{n:true},"F","G"],
[{x:3.85,p:"OEM R4"},"X","C","V","B"],
[{x:3.85,c:"#ff8f8f",f:3,w:1.25},"Gui",{c:"#5eb1e7",f:3,w:2},"Space\n\n\nFunc",{c:"#ff8f8f",f:3,w:1.25},"Alt"],
[{r:-8,y:-2.83,x:8,c:"#cfcfcf",p:"OEM R1"},"_\n-","&\n7","*\n8","(\n9"],
[{x:7.5,p:"OEM R2"},"à","Y","U","I"],
[{x:7.75,p:"OEM R3"},"é\nç","H",{n:true},"J","K"],
[{x:7.25,c:"#8ed7b0",p:"OEM R4"},"è\n\n\nAccent",{c:"#cfcfcf"},"?\n/","N","M"],
[{x:7.25,p:"OEM R1",w:2.75},"Space",{c:"#eb9346",w:1.25},"Leader"]
