[{y:0.4,x:2.5,c:"#cfcfcf",p:"OEM R1",a:7},""],
[{y:-0.9,x:0.5,f:2},"",{f:3},"",{x:9.9,c:"#8ed7b0",fa:[6]},"°",{c:"#cfcfcf"},"",{w:2},"",{x:0.43},""],
[{x:0.3,p:"OEM R2",w:1.5},"",{x:0.03},"",{x:9.17,c:"#8ed7b0"},"ô",{c:"#cfcfcf"},"","",{w:1.5},"",{x:0.43},""],
[{x:0.15,p:"OEM R3",w:1.75},"","",{x:9.5},"","",{w:2.25},"",{x:0.43},""],
[{p:"OEM R4",w:2.25},"","",{x:8.75},"","",{w:1.75},"",""],
[{x:0.25,w:1.25},"",{x:13.25},"","",""],
[{r:8,y:-5.52,x:3.65,p:"OEM R1"},"",{c:"#8ed7b0"},"€",{c:"#cfcfcf"},"",""],
[{x:3.1,p:"OEM R2"},"",{c:"#8ed7b0"},"ë",{c:"#cfcfcf"},"",""],
[{x:3.35,p:"OEM R3"},"","",{n:true},"",""],
[{x:3.85,p:"OEM R4"},"",{c:"#8ed7b0"},"ç",{c:"#cfcfcf"},"",""],
[{x:3.85,w:1.25},"",{w:2},"",{w:1.25},""],
[{r:-8,y:-2.83,x:8,p:"OEM R1"},"","","",""],
[{x:7.5,c:"#8ed7b0",p:"OEM R2"},"â",{c:"#cfcfcf"},"",{c:"#8ed7b0"},"ù","ï"],
[{x:7.75,p:"OEM R3"},"ê","µ",{n:true},"û","î"],
[{x:7.25,p:"OEM R4",a:4},"\n\n\nAccent",{c:"#cfcfcf",a:7},"",{c:"#8ed7b0"},"~",{c:"#cfcfcf"},""],
[{x:7.25,p:"OEM R1",w:2.75},"",{w:1.25},""]
