[{y:0.4,x:2.5,c:"#cfcfcf",p:"OEM R1",fa:[4,4]},"2\né"],
[{y:-0.9,x:0.5,f:2,fa:[4,4]},"Esc\n~",{f:3,fa:[4,4]},"1\n&",{x:9.9},"°\n)","+\n=",{w:2},"Backspace",{x:0.43,c:"#cfba00",a:7,fa:[9]},":-("],
[{x:0.3,c:"#ac97d8",p:"OEM R2",a:4,fa:[4],w:1.5},"Tab\n\n\nRGB",{x:0.03,c:"#cfcfcf"},"A",{x:9.17},"P","¨\n^","$",{fa:[4,4],w:1.5},"µ\n*",{x:0.43,c:"#cfba00",a:7,fa:[9]},":-)"],
[{x:0.15,c:"#cfcfcf",p:"OEM R3",a:4,fa:[4],w:1.75},"Backspace","Q",{x:9.5},"M",{fa:[4,4]},"%\nù",{w:2.25},"Enter",{x:0.43,c:"#cfba00",f:3},"End\n\n\nHome"],
[{c:"#eb9346",p:"OEM R4",fa:[4],w:2.25},"Shift\n{\n\n[",{c:"#cfcfcf"},"<",{x:8.75,fa:[4,4]},"/\n:","§\n!",{c:"#eb9346",fa:[4],w:1.75},"Shift\n}\n\n]",{c:"#cfcfcf",fa:[4,4]},"↑\n⇑"],
[{x:0.25,w:1.25},"Ctrl",{x:13.25},"←",{fa:[4]},"↓\n⇓","→"],
[{r:8,y:-5.52,x:3.65,p:"OEM R1",fa:[4,4]},"3\n#","4\n'","5\n(","6\n-"],
[{x:3.1,p:"OEM R2"},"Z","E","R","T"],
[{x:3.35,p:"OEM R3"},"S","D",{n:true},"F","G"],
[{x:3.85,p:"OEM R4"},"W","X","C","V"],
[{x:3.85,c:"#ff8f8f",f:3,w:1.25},"Gui",{c:"#5eb1e7",f:3,w:2},"Space\n\n\nFunc",{c:"#ff8f8f",f:3,w:1.25},"Alt"],
[{r:-8,y:-2.83,x:8,c:"#cfcfcf",p:"OEM R1",f:3},"7\nè",{f:3},"8\n-",{f:3},"9\nç",{f:3},"0\nà"],
[{x:7.5,p:"OEM R2",f:3},"Y",{f:3},"U",{f:3},"I",{f:3},"O"],
[{x:7.75,p:"OEM R3",f:3},"H",{f:3},"J",{f:3,n:true},"K",{f:3},"L"],
[{x:7.25,p:"OEM R4",f:3},"B",{f:3},"N",{f:3},"?\n,",{f:3},".\n;"],
[{x:7.25,p:"OEM R1",f:3,w:2.75},"Space",{c:"#eb9346",f:3,w:1.25},"Leader"]
