[{y:0.4,x:2.5,c:"#8ed7b0",p:"OEM R1",a:7,fa:[4]},"F2"],
[{y:-0.9,x:0.5,c:"#cfcfcf",f:2},"",{c:"#8ed7b0",f:3,fa:[4]},"F1",{x:9.9,fa:[6]},"°",{c:"#cfcfcf"},"",{w:2},"",{x:0.43},""],
[{x:0.3,p:"OEM R2",w:1.5},"",{x:0.03},"",{x:9.17},"","","",{w:1.5},"",{x:0.43},""],
[{x:0.15,c:"#8ed7b0",p:"OEM R3",f:3,w:1.75},"SUPPR","â",{x:9.5},"î","ô",{c:"#cfcfcf",w:2.25},"",{x:0.43},""],
[{c:"#8ed7b0",p:"OEM R4",w:2.25},"[",{c:"#cfcfcf"},"",{x:8.75,c:"#8ed7b0"},"ï",{c:"#cfcfcf"},"",{c:"#8ed7b0",w:1.75},"]","⇑"],
[{x:0.25,c:"#cfcfcf",w:1.25},"",{x:13.25,c:"#8ed7b0",f:3},"Home","⇓",{f:3},"End"],
[{r:8,y:-5.52,x:3.65,p:"OEM R1",fa:[4]},"F3","F4","F5","F6"],
[{x:3.1,c:"#cfcfcf",p:"OEM R2"},"",{c:"#8ed7b0",fa:[6]},"€","€",{c:"#cfcfcf"},""],
[{x:3.35,p:"OEM R3"},"","",{n:true},"",""],
[{x:3.85,c:"#8ed7b0",p:"OEM R4",f:3},"Mute","ç","°",{c:"#cfcfcf"},""],
[{x:3.85,w:1.25},"",{w:2},"",{w:1.25},""],
[{r:-8,y:-2.83,x:8,p:"OEM R1"},"",{c:"#8ed7b0",fa:[4]},"F7","F8","F9"],
[{x:7.5,p:"OEM R2",fa:[6]},"ù",{c:"#cfcfcf"},"",{c:"#8ed7b0"},"û","ù"],
[{x:7.75,p:"OEM R3"},"ç","µ",{n:true},"~","ê"],
[{x:7.25,p:"OEM R4"},"ê",{c:"#cfcfcf"},"",{c:"#8ed7b0"},"","ë"],
[{x:7.25,c:"#cfcfcf",p:"OEM R1",w:2.75},"",{w:1.25},""]
